1) 打印初始种群
pop =

  Columns 1 through 19 

     0     1     0     1     1     1     5     0     1     1     1     1     1     0     1     0     0     1     0
     0     0     1     0     1     0     2     0     1     1     1     1     0     1     1     0     1     1     0
     0     1     1     0     1     0     5     0     1     0     1     1     1     0     0     0     0     1     0
     0     1     1     0     0     0     5     1     0     1     1     1     1     1     0     0     1     0     1
     0     1     1     0     1     1     4     0     0     0     0     0     0     0     1     0     0     0     1
     0     1     1     0     0     0     3     1     0     1     0     1     1     0     0     0     1     0     0
     0     1     1     1     0     1     4     1     1     0     1     0     0     1     1     1     0     0     0
     0     0     0     0     0     1     4     0     0     0     1     0     0     0     1     0     0     1     1
     0     0     0     1     0     0     5     0     1     1     0     1     1     1     0     0     1     1     0
     0     1     0     1     0     0     4     1     1     1     0     0     0     1     1     0     1     1     0
     0     1     1     1     0     0     4     1     0     1     1     0     0     1     1     1     1     1     0
     0     0     0     0     1     0     2     1     1     0     1     1     1     0     0     0     1     1     0
     0     0     1     1     0     0     2     1     0     0     1     1     1     1     0     0     1     1     1
     0     0     0     1     0     0     2     1     1     1     0     1     0     1     1     0     0     0     1
     0     1     1     0     0     0     3     0     1     0     1     0     0     1     0     0     0     1     1
     0     1     1     0     0     1     5     1     0     0     0     0     0     0     0     0     0     1     1
     0     1     1     1     0     1     4     1     0     0     0     1     0     0     1     1     1     0     0
     0     0     1     0     0     0     4     0     0     1     0     1     1     1     0     1     1     1     0
     0     0     1     1     1     1     5     0     0     1     0     0     0     1     0     0     1     0     1
     0     0     1     0     0     1     5     1     1     0     1     1     1     1     0     0     0     1     0
     0     1     0     1     0     0     3     0     0     1     1     1     0     1     1     1     1     0     0
     0     1     0     1     0     1     6     1     0     1     1     1     1     0     1     0     0     0     0
     0     0     0     1     0     1     4     0     1     0     0     1     0     1     1     0     0     1     1
     0     1     0     1     0     0     2     1     0     1     1     0     1     0     1     1     1     0     1
     0     0     0     1     1     0     2     1     1     0     1     1     1     1     0     1     1     0     0
     0     0     0     1     0     0     4     0     1     1     0     1     0     0     0     1     0     0     1
     0     0     1     0     1     0     2     0     0     1     0     0     0     0     0     1     1     0     1
     0     1     0     1     0     1     5     1     1     1     1     1     1     1     1     1     0     0     1
     0     0     1     0     1     0     6     1     0     1     0     1     0     0     1     1     1     1     1
     0     1     0     1     1     1     2     1     1     1     1     0     0     0     1     1     0     0     0

  Columns 20 through 34 

     1     1     0     1     1     6     0     1     1     1     0     1     1     0     1
     1     1     1     1     1     5     0     4     1     1     0     0     0     1     0
     1     1     1     0     0     6     0     2     0     0     0     0     0     1     0
     0     1     0     1     0     6     1     5     1     1     0     0     1     1     0
     1     1     1     0     0     5     1     4     1     0     0     1     1     1     1
     0     1     0     1     0     1     0     2     0     1     0     0     1     1     1
     1     0     1     0     0     2     1     1     0     1     0     0     0     1     0
     1     0     0     0     1     5     1     1     1     1     0     0     0     1     1
     0     0     0     1     1     6     1     3     1     0     0     1     0     0     0
     0     0     0     0     1     5     0     5     0     1     0     1     0     1     1
     1     1     1     1     0     6     0     5     1     0     0     0     0     1     1
     0     0     1     1     1     6     1     3     1     1     0     0     1     1     0
     0     0     1     1     0     2     0     6     0     1     0     0     1     1     1
     1     1     1     1     1     4     1     3     0     0     0     0     0     1     0
     1     1     0     0     1     4     1     6     1     0     0     1     0     0     1
     0     1     0     0     0     4     1     4     1     0     0     1     1     1     1
     0     0     1     0     1     6     1     5     1     0     0     0     1     1     1
     1     1     0     0     1     3     1     6     0     1     0     0     1     0     0
     1     1     0     0     0     2     1     4     1     0     0     0     1     0     0
     0     1     0     1     0     4     1     4     0     1     0     1     0     0     1
     1     0     1     1     1     3     1     5     1     1     0     0     1     0     0
     0     0     1     1     1     4     1     3     0     1     0     1     1     0     0
     0     0     1     0     1     2     0     4     1     0     0     1     0     0     0
     1     1     0     1     0     5     1     3     1     1     0     1     1     0     1
     0     1     0     0     0     6     0     5     0     0     0     0     0     0     0
     1     1     0     0     0     6     1     5     1     0     0     1     0     0     0
     1     0     1     1     1     6     0     5     0     1     0     0     1     1     1
     0     1     1     1     0     4     0     6     1     1     0     0     1     0     1
     0     0     1     1     1     3     0     6     0     1     0     1     0     0     1
     0     1     1     0     0     5     1     4     1     0     0     0     0     0     1

2) 打印独立通路:
 
P{1} =
 
  Columns 1 through 18 

    31    32    36    41    43    44   114    47    57    77    73    72    89    91     5     7     8    85

  Columns 19 through 22 

    11   110   120   113

 
 
P{2} =
 
    31    32   122

 
 
P{3} =
 
    31    33    38    39   123

 
 
P{4} =
 
  Columns 1 through 18 

    31    34    41    43    44   114    47    57    77    73    72    89    91     5     7     8    85    11

  Columns 19 through 21 

   110   120   113

 
 
P{5} =
 
    31    34    41    43    44   114    47    57    77    73    71    70   104    95   119   120   113

 
 
P{6} =
 
  Columns 1 through 18 

    31    34    41    43    44   114    47    57    58    59    79    64    66    91     5     7     8    85

  Columns 19 through 22 

    11   110   120   113

 
 
P{7} =
 
    31    34    41     1     2     8    85    11   110   120   113

 
 
P{8} =
 
  Columns 1 through 18 

    31    35    42    44   114    47    57    58    59    79    64    66    91     5     7     8    85    11

  Columns 19 through 21 

   110   120   113

 
 
P{9} =
 
    31    35    42    44   114    47    48    50    53    55    56    76    75   104    95   119   120   113

 
 
P{10} =
 
  Columns 1 through 18 

    31    35    42    44   114    47    48    50    53   105   107   103   102   109    90    96    95   119

  Columns 19 through 20 

   120   113

 
 
P{11} =
 
    31    35    42    44    65    63     3     4     7     8    85    11   110   120   113

 
 
P{12} =
 
    31    35    42    44    65    67     2     8    85    11   110   120   113

 
 
P{13} =
 
    31    35    45    47    48    50    53   105   107   103   102   109    90    96    95   119   120   113

 
 
P{14} =
 
    31    35    45    47    48    50    52    51    76    75   104    95   119   120   113

 
 
P{15} =
 
    31    35    45    47    48    50    54    56    76    75   104    95   119   120   113

 
 
P{16} =
 
    31    35    45    47    48    49    51    76    75   104    95   119   120   113

 
 
P{17} =
 
    31    35    45    61    60    59    79    64    66    91     5     7     8    85    11   110   120   113

 
 
P{18} =
 
    31    35    45    61    60    59    74    75   104    95   119   120   113

 
 
P{19} =
 
    31    35    45    61    62     3     4     7     8    85    11   110   120   113

 
 
P{20} =
 
    31    37    40   123

 
 
P{21} =
 
  Columns 1 through 18 

    31    37    46    10    23    24   115    87    16    89    91     5     7     8    85    11   110   120

  Column 19 

   113

 
 
P{22} =
 
    31    37    46    10    23    24   115    87    16     6     5     7     8    85    11   110   120   113

 
 
P{23} =
 
    31    37    46    10    23    24    92    85    11   110   120   113

 
 
P{24} =
 
    31    37    46    10    21    88    26    20    69    78    73    71    70   104    95   119   120   113

 
 
P{25} =
 
    31    37    46    10    21    88    26    20    69    80    82    94    95   119   120   113

 
 
P{26} =
 
    31    37    46    10    21    88    26    20    69    80    82    93    97    96    95   119   120   113

 
 
P{27} =
 
  Columns 1 through 18 

    31    37    46    10    21    88    26    20    69    80    82    93    98   109    90    96    95   119

  Columns 19 through 20 

   120   113

 
 
P{28} =
 
  Columns 1 through 18 

    31    37    46    10    21    88    26    20    69    80    82    93    99    86   106   107   103   102

  Columns 19 through 25 

   109    90    96    95   119   120   113

 
 
P{29} =
 
    31    37    46    10    21    12    13    87    16     6     5     7     8    85    11   110   120   113

 
 
P{30} =
 
  Columns 1 through 18 

    31    37    46    10    21    12    13    87    17    19    69    80    82    93    99    86   106   107

  Columns 19 through 27 

   103   102   109    90    96    95   119   120   113

 
 
P{31} =
 
    31    37    46    10    21    12    13     9    85    11   110   120   113

 
 
P{32} =
 
  Columns 1 through 18 

    31    37    46    10    21    12    14    15    17    19    69    80    82    93    99    86   106   107

  Columns 19 through 27 

   103   102   109    90    96    95   119   120   113

 
 
P{33} =
 
    31    37    46    10    21    12    14    15    17    18    81    29    30   111   110   120   113

 
 
P{34} =
 
    31    37    46    10    21    12    14    15    17    18    81    29    30   112   113

 
 
P{35} =
 
    31    37    46    10    21    12    14    25    11   110   120   113

 
 
P{36} =
 
  Columns 1 through 18 

    31    37    46    10    22    26    20    69    80    82    93    99    86   106   107   103   102   109

  Columns 19 through 24 

    90    96    95   119   120   113

 
 
P{37} =
 
    31    37    46    10    22    26    27    28    29    30   112   113

 
 
P{38} =
 
  Columns 1 through 18 

    31    37    46    10    22    26    27    68    82    93    99    86   106   107   103   102   109    90

  Columns 19 through 23 

    96    95   119   120   113

 
 
P{39} =
 
  Columns 1 through 18 

    31    37    46    10    22    26    27    68    82    93   121   101   116   102   109    90    96    95

  Columns 19 through 21 

   119   120   113

 
 
P{40} =
 
  Columns 1 through 18 

    31    37    46    10    22    26    27    68    82    93   121   101   117   108   103   102   109    90

  Columns 19 through 23 

    96    95   119   120   113

 
 
P{41} =
 
  Columns 1 through 18 

    31    37    46    10    22    26    27    68    82    93   121   100    86   106   107   103   102   109

  Columns 19 through 24 

    90    96    95   119   120   113

 
 
P{42} =
 
  Columns 1 through 18 

    31    37    46    10    22    26    27    68    82    93   121   100    86   118   108   103   102   109

  Columns 19 through 24 

    90    96    95   119   120   113

 
 
P{43} =
 
    31    37    46    10    22    26    27    68    82    83    84    90    96    95   119   120   113

 
3) 打印被分割的分支
  Columns 1 through 18 

    44    45    46    47    49    50    51    57    62    63    65    66    72    75    76    16    18    19

  Columns 19 through 36 

    22    23    25    26    28    31    32    33    34    39    41    78    80    81    82    83    85    86

  Columns 37 through 54 

    87    89    90    92    95    97    99   302   129    48   107   109   110   115   118   119   120   121

  Columns 55 through 65 

   122   123   124   128   132   134   135   301   130   131   267


4) 最优个体编码
ans =

  Columns 1 through 18 

     0     0     0     0     1     0     5     1     0     0     1     1     1     0     0     1     1     0

  Columns 19 through 34 

     0     0     0     1     1     1     6     1     3     0     0     0     0     1     1     0
