1	1	669	32.7	1.4
2	10	670	33.914968	2.572971
3	100	566	0.389837	0.000928
4	100	543	2.357463	0.416153
5	101	568	11.692186	0.835087
6	102	103	26.126987	45.759175
7	103	104	26.938914	8.752019
8	104	108	26.938914	29.42972				
9	105	193	13.119131	3.404983				
10	106	107	12.645901	0.404144				
11	107	197	26.938914	34.3071				
12	108	105	13.119131	0.373668				
13	108	194	13.819783	3.778393				
14	109	453	0.128835	0.00009				
15	109	195	26.040604	5.649439				
16	11	690	32.550533	14.69604				
17	110	111	0.811927	0.003176
18	111	112	0.811927	0.002864
19	112	103	0.811927	0.07161
20	113	114	6.702602	0.160048
21	114	110	0.811927	0.012622
22	114	115	5.890675	0.096296
23	115	116	5.953426	0.196717
24	116	559	6.028567	0.759791
25	117	179	0.099426	0.000032
26	117	113	6.702602	0.151841
27	118	178	0.038466	0.000005
28	118	117	6.802028	0.147926
29	119	550	1.167169	0.005475
30	12	608	0.521562	0.000792
31	120	528	1.481097	0.014284
32	120	515	6.247566	0.874314
33	121	554	1.070557	0.011874
34	122	521	9.642761	6.72651
35	123	122	1.955731	0.024906
36	124	125	5.296718	0.460939
37	125	126	5.296718	3.286239
38	126	102	5.296718	4.323713
39	127	467	0.476631	0.000612
40	128	129	55.573653	11.980432
41	129	79	55.573653	33.45788
42	13	201	97.572392	34.852629
43	130	492	2.320158	0.003941
44	131	697	11.232615	1.048221
45	132	133	7.144057	0.009741
46	133	403	7.144057	0.061612
47	134	459	135.495881	29.843548
48	135	136	151.971084	3.509714
49	136	137	151.971084	3.509714
50	137	81	151.971084	5.264572
51	138	139	86.313364	0.545302
52	138	141	18.731869	1.162158
53	139	153	0.79738	0.00106
54	139	140	85.515984	1.730739
55	14	203	4.067988	0.002317
56	140	449	85.662709	0.938369
57	141	142	30.031	1.113815
58	142	140	0.146725	0.000071
59	142	143	29.884275	0.389545
60	143	476	42.910527	2.2017
61	144	143	13.026252	0.34292
62	145	458	0.435562	0.000125
63	145	144	13.026252	0.837391
64	146	147	13.461814	0.203464
65	146	141	11.299131	0.27199
66	147	145	13.461814	0.391567
67	148	149	3.410851	0.000522
68	148	146	24.760944	2.03066
69	149	150	0.861056	0.001211
70	149	154	2.549795	0.014599
71	15	16	1.862143	0.009287
72	150	151	0.861056	0.000315
73	151	152	1.349025	0.001365
74	152	153	3.232595	0.013656
75	153	450	4.029975	0.032457
76	154	155	2.549795	0.027008
77	155	156	2.549795	0.039727
78	156	157	2.549795	0.036497
79	157	158	2.549795	0.008639
80	158	159	2.549795	71.528702
81	159	160	0.487969	0.000285
82	159	448	0.991107	0.004066
83	159	152	1.070719	4.952895
84	16	682	1.862143	0.004103
85	160	151	0.487969	4.951287
86	161	415	134.029879	195.191706
87	162	152	0.812851	0.001103
88	162	148	28.171795	0.123226
89	163	164	3.593169	0.000986
90	164	165	3.593169	0.002464
91	165	166	3.593169	0.004965
92	166	167	3.593169	0.002464
93	167	132	3.593169	0.000986
94	168	435	82.920634	16.933994
95	169	168	82.920634	244.493581
96	17	685	10.239373	0.123337
97	170	416	14.441879	4.561038
98	171	170	14.441879	1.660052
99	172	428	27.479027	1.181575
100	173	438	115.697178	30.343758
101	174	437	1.96985	0.003134
102	175	4	1.249417	0.001894
103	176	671	18.818804	1.565473
104	177	202	1.475565	0.032782
105	178	116	0.075141	0.000005
106	179	178	0.036675	0.000004
107	179	115	0.062751	0.000004
108	18	593	0.34	0.000224
109	18	183	24.625745	1.790762
110	180	14	1.723323	0.007556
111	181	211	15.632804	0
112	182	19	14.905343	11.223092
113	183	604	24.62	3.9
114	184	24	1.203391	0.016278
115	184	185	10.685082	0.593686
116	185	23	0.067009	0.00005
117	185	186	10.618073	0.541961
118	186	601	10.963439	0.676908
119	187	548	4.655703	9.633586
120	188	187	1.579384	0.06747
121	188	562	3.171644	15.597734
122	189	190	7.023747	0
123	189	578	6.978654	0.200196
124	19	614	14.905343	0.467629
125	190	561	7.023747	0.000005
126	191	192	0.817554	0.001448
127	191	106	12.645901	0.565236
128	192	107	14.293013	0.967931
129	193	191	13.463455	0.955739
130	194	193	0.344323	0.000257
131	194	192	13.475459	0.957444
132	195	454	26.040604	3.72863
133	196	201	13.227608	0.013473
134	197	454	27	56.1
135	198	199	6.744714	0.243344
136	199	418	6.744714	0.142333
137	2	668	40.93895	1.183352
138	20	686	21.175136	2.075236
139	200	667	108.785134	142.180607
140	201	57	110.8	20.229447
141	202	504	8.622577	9.375571
142	203	196	8.522138	0.005084
143	204	673	1.401027	0.000696
144	204	196	4.705469	0.115282
145	205	14	2.344665	0.033377
146	206	432	40.999728	950.000565
147	207	208	8.673268	0.782024
148	207	445	5.768611	1.570996
149	208	171	8.673268	1.134908
150	209	614	4.961529	0.828071
151	21	599	7.5	3.13
152	21	601	2.757234	0.085455
153	210	616	5.568286	0.348525
154	210	617	4.961529	0.477787
155	211	212	16.079298	24.512625
156	212	608	16.079298	16.472616
157	22	186	0.345366	0.001341
158	22	21	10.259595	0.592784
159	23	22	10.604961	0.540623
160	24	23	10.537952	0.577449
161	25	605	0.803446	0.00223
162	250	2	16.305968	0.215203
163	251	300	13.298248	0.090898
164	251	250	16.305968	0.453727
165	26	623	0.221182	0.000427
166	27	624	0.411119	0.000786
167	27	662	32.842427	26.666333
168	28	29	1.396679	0.00606
169	29	30	1.396679	0.00606
170	3	5	12.558646	0.145922
171	3	4	20.616719	0.240323
172	30	35	0.618607	0.000597
173	30	31	0.778072	0.003246
174	300	175	1.249417	0.000883
175	300	46	5.271687	0.035961
176	300	53	6.777145	0.048232
177	31	32	1.396679	0.00332
178	32	33	1.396679	0.002878
179	33	661	1.396679	0.002518
180	34	625	2.769049	0.080025
181	35	36	0.618607	0.002052
182	36	31	0.618607	0.000597
183	37	38	15.311162	11.904078
184	38	39	15.311162	2.393755
185	695	694	2.018217	0.015554
186	695	655	29.609509	19.924558
187	39	40	7.337153	0.448964
188	39	42	7.974009	2.825147
189	4	6	21.866136	0.358994
190	40	41	7.337153	2.391898
191	41	638	8.709852	0.996739
192	42	41	1.372699	0.015715
193	42	639	6.60131	0.572559
194	43	44	32.207893	0.213279
195	44	1	32.207893	1.510547
196	696	579	24.535101	15.300236
197	45	43	19.649247	0.337368
198	45	2	24.632982	0.877338
199	46	47	5.271687	0.012185
200	47	48	5.271687	0.058799
201	48	49	5.271687	0.00714
202	49	50	5.271687	0.031041
203	5	43	12.558646	0.129709
204	50	51	5.271687	0.037617
205	51	52	12.048832	0.02405
206	52	8	12.048832	0.184982
207	53	54	6.777145	0.013525
208	54	55	6.777145	0.035229
209	55	56	6.777145	0.013683
210	56	51	6.777145	0.072072
211	58	629	2.745945	0.039504
212	59	58	2.745945	0.041713
213	6	7	4.566688	0.026798
214	6	10	17.299448	0.427347
215	60	640	5.433342	0.624374
216	61	634	0.638861	0.001566
217	62	633	8.087366	0.172407
218	697	455	7.777956	0.191501
219	697	488	4.642908	0.194646
220	63	535	0.996391	0.035614
221	63	613	19.342591	21.086079
222	64	65	0.352212	0.004026
223	64	582	4.085036	2.555022
224	65	535	6.452114	3.770682
225	66	540	1.28754	0.003007
226	66	504	13.415454	1.193439
227	67	68	94.873263	48.875083
228	68	69	2.068765	0.001798
229	68	72	92.804499	12.229998
230	69	74	2.068765	0.004708
231	7	8	4.566688	0.003216
232	70	483	0.384231	0.000071
233	70	71	37.493972	0.136117
234	71	539	22.790978	0.249641
235	71	66	14.702994	54.254608
236	72	70	37.878203	0.366246
237	72	73	54.926295	0.823226
238	73	505	17.716719	0.062165
239	73	506	37.209576	2.015525
240	74	177	1.475565	0.023987
241	74	75	0.5932	54.474663
242	75	202	7.147012	4.325324
243	76	77	33.18647	3.7334
244	77	78	33.18647	2.226015
245	78	79	47.666949	17.223261
246	79	455	103.240601	49.252318
247	8	9	16.61552	0.042571
248	80	457	95.469336	93.655851
249	81	82	246.95	154.504097
250	83	569	19.039955	3.873284
251	84	481	22.925936	5.528779
252	85	506	40.04284	0.683112
253	86	87	1.374585	0.00584
254	86	90	2.807427	0.040872
255	87	88	1.374585	0.007565
256	88	89	1.374585	0.012479
257	89	90	1.374585	0.014988
258	9	10	16.61552	0.354757
259	90	526	4.182012	0.173412
260	439	441	25.779118	24.673817
261	439	440	30.02246	5.432169
262	416	417	14.441879	1.544048
263	415	162	28.984646	0.064137
264	415	138	105.045233	1.327863
265	417	198	6.744714	0.173096
266	417	418	7.697166	0.558773
267	418	419	14.441879	5.886418
268	419	422	14.441879	0.923174
269	420	432	3.963755	0.031543
270	421	423	10.478124	0.390226
271	421	420	4	0.034
272	440	402	0.359971	0.000395
273	440	444	29.662489	20.122971
274	422	421	14.441879	0.786745
275	423	424	22.489413	1.698374
276	424	425	23.715863	1.635304
277	425	426	25.11287	2.124032
278	426	427	38.651129	4.323897
279	427	169	82.920634	19.901061
280	428	427	44.269505	4.276023
281	429	426	13.538259	0.390193
282	429	428	16.790478	0.438069
283	430	425	1.397007	0.004249
284	430	429	30.328737	1.738086
285	431	424	1.22645	0.003386
286	431	430	31.725744	1.63444
287	432	423	12.011289	0.324737
288	432	431	32.952194	2.019723
289	433	174	1.96985	0.003024
290	434	433	29.448877	0.295479
291	433	172	0.173838	0.000046
292	434	435	29.622715	0.384214
293	435	173	83.1	19.7
294	414	437	1.987105	0.003078
295	414	434	29.6	0.384
296	437	438	3.956956	0.01618
297	438	405	119.654133	181.650128
298	441	443	12.246658	0.616968
299	441	442	13.53246	0.620681
300	442	207	14.44	8.17
301	443	444	11.337238	0.26437
302	443	442	11.33	0.264
303	444	206	41	14.36
304	445	171	5.768611	0.345937
305	667	180	1.723323	0.003206
306	667	45	44.282229	0.503955
307	667	3	33.175365	0.565711
308	667	251	29.604216	0.71237
309	656	657	1.140963	0.001932
310	656	659	52.661364	49.595788
311	657	658	0.479663	0.000599
312	657	639	0.6613	0.001124
313	658	627	13.651545	0.221318
314	659	644	18.035447	0.524128
315	659	660	34.625916	1.897895
316	660	661	1.37237	0.010924
317	660	27	33.253546	12.405175
318	661	34	2.769049	0.014574
319	662	622	0.218576	0.000176
320	662	663	32.623851	4.021703
321	663	621	0.216496	0.000195
322	663	666	32.407354	18.373636
323	666	619	0.205356	0.000219
324	666	665	32.201998	7.944418
325	665	618	0.43666	0.000678
326	665	646	31.765338	35.894297
327	668	671	40.381312	3.462415
328	668	1	0.56	0.000489
329	646	647	60.268176	20.291643
330	647	653	0.684428	0.001793
331	647	648	59.583748	53.979833
332	648	651	7.10306	0.119424
333	648	649	52.480688	17.188282
334	649	650	7.014419	0.115259
335	649	678	45.466269	100.254739
336	650	651	67.386031	7.103048
337	651	652	74.489091	5.507565
338	652	653	74.489091	56.578969
339	653	618	78.298408	42.151852
340	654	653	3.124888	0.017657
341	655	654	1.106671	0.007178
342	655	646	28.502838	7.2613
343	669	176	18.818804	0.491486
344	669	670	13.9	0.2
345	618	619	78.735068	100.189436
346	619	620	78.940424	23.259938
347	620	621	79.423054	4.57928
348	621	622	79.63955	4.197227
349	622	623	80.077122	7.900987
350	623	624	80.298304	41.834469
351	624	625	80.709423	14.733374
352	625	626	83.478472	4.068229
353	626	13	97.572392	0.697053
354	627	626	14.093921	0.177879
355	670	689	47.861695	54.057344
356	628	658	13.171882	2.416245
357	629	628	3.365011	0.102289
358	630	629	0.619066	0.005138
359	630	636	6.724886	6.886944
360	631	59	2.745945	0.075721
361	631	204	6.106496	5.09646
362	632	628	9.806871	0.430974
363	633	632	9.38262	1.442216
364	634	62	8.087366	1.775792
365	635	630	7.343953	0.099298
366	635	631	8.852441	1.195498
367	636	643	16.839755	1.821308
368	637	60	5.433342	0.309973
369	637	636	10.114869	2.047011
370	671	672	59.200116	10.76692
371	638	632	0.424251	0.002081
372	638	637	15.548211	3.843775
373	639	638	7.26261	0.439887
374	640	641	0.319435	0.000638
375	640	61	0.319426	0.00078
376	640	642	4.794481	5.013304
377	641	61	0.319435	0.000517
378	642	63	20.338982	16.708681
379	643	633	1.295254	0.010754
380	643	642	15.544501	2.079376
381	644	627	0.442375	0.000915
382	644	28	1.396679	0.013641
383	644	635	16.196393	5.977384
384	672	673	3.053124	0.213515
385	672	674	56.146991	3.226171
386	673	203	4.454151	0.109502
387	674	675	2.344665	0.19571
388	674	656	53.802327	1.603925
389	675	205	2.344665	0.048548
390	613	64	4.437248	2.570736
391	613	182	14.905343	3.285952
392	599	616	10.7	7.74
393	600	599	3.190859	0.114447
394	600	210	10.53	7.5
395	601	600	13.720673	2.926301
396	602	184	11.9	0.69
397	602	603	5.144058	0.282545
398	603	24	9.33	0.43
399	604	605	2.599266	0.022285
400	604	606	17.835977	3.020171
401	604	603	4.2	0.074406
402	605	686	3.402712	0.074406
403	606	25	0.803446	0.002129
404	606	602	17	25.1
405	590	591	0.784666	0.001837
406	590	17	8.099089	0.077789
407	590	18	24.967136	1.811977
408	591	592	0.338172	0.000262
409	591	211	0.446495	0.057415
410	592	20	20.833745	1.257606
411	593	20	0.34	0.000268
412	594	592	20.495573	5.613443
413	594	181	15.63	0.633
414	596	595	36.128377	13.43022
415	595	594	36.128377	4.730327
416	597	596	36.128377	0.349031
417	608	609	16.600861	4.100516
418	609	611	57.171147	3.96494
419	610	12	0.521562	0.0009
420	610	611	2.293924	0.01248
421	610	677	41.744241	12.150437
422	611	679	59.46507	81.414695
423	614	615	19.866872	7.660598
424	615	597	36.128377	122.466924
425	616	615	16.261505	8.895249
426	617	209	4.96	0.28
427	689	37	15.311162	2.458451
428	689	11	32.550533	40.360017
429	679	650	60.371613	45.737409
430	680	609	40.570286	1.355212
431	681	680	39.868083	1.300879
432	682	681	39.174501	4.268382
433	683	682	37.312358	1.463595
434	684	683	2.495138	0.007265
435	684	17	2.140284	0.007831
436	685	683	34.81722	1.01943
437	686	685	24.577847	0.635681
438	687	684	4.635422	0.02589
439	687	590	33.850891	2.7037
440	688	15	1.862143	0.00398
441	688	687	38.486313	9.763691
442	690	691	0.440177	0.009413
443	690	692	32.110356	3.114855
444	676	681	0.693582	0.00131
445	676	688	40.348456	3.268112
446	677	680	0.702204	0.001334
447	677	676	41.042038	3.745988
448	678	679	0.906542	0.002056
449	678	610	44.559727	126.800646
450	691	26	0.221182	0.00053
451	691	622	0.218995	0.000777
452	692	620	0.48263	0.005286
453	692	695	31.627726	34.846561
454	694	654	2.018217	0.100363
455	582	5860	0.351656	0.004013
456	582	583	3.73338	1.465041
457	569	558	20.7	17.35
458	570	557	1.482533	0.004732
459	570	571	39.199618	21.458659
460	571	86	4.182012	0.199701
461	571	573	35.017606	15.572208
462	572	555	1.851717	0.011379
463	572	574	30.483963	15.40705
464	573	556	2.681926	0.025152
465	573	572	32.33568	13.278263
466	574	529	6.670117	0.375931
467	574	575	23.813846	1.557731
468	575	553	0.577644	0.002522
469	575	576	23.236202	1.479625
470	576	530	8.066632	1.285263
471	576	577	15.16957	3.064814
472	577	119	1.167169	0.006969
473	577	189	14.002401	1.594025
474	578	559	0.138161	0.000068
475	578	118	6.840493	0.483007
476	583	581	1.110423	0.040017
477	583	584	2.622957	0.439447
478	559	560	6.166728	0.492488
479	560	551	6.32741	0.222209
480	561	560	0.160683	0.001397
481	561	549	2	0.024
482	561	188	4.751028	5.599397
483	562	563	7.25281	1.317457
484	563	564	7.695366	1.571526
485	564	565	8.070405	0.542416
486	565	566	8.440208	0.725262
487	566	567	8.830045	0.793806
488	567	568	9.138083	0.86716
489	568	102	20.830269	40.906237
490	584	579	0.297812	0.000218
491	584	585	2.325145	0.520522
492	543	567	0.308038	0.00058
493	543	544	2.049425	0.269736
494	544	101	11.692186	1.660644
495	545	565	0.369802	0.000835
496	545	100	2.7473	0.57303
497	546	564	0.37504	0.000831
498	546	545	3.117103	0.581464
499	547	563	0.442556	0.001285
500	547	546	3.492142	2.124049
501	548	562	4.081166	0.450507
502	548	547	3.934698	3.139025
503	549	187	3.076319	7.210466
504	550	551	0.202886	0.000305
505	550	549	0.964283	0.003785
506	551	552	6.530296	17.659665
507	552	553	6.868265	0.676369
508	585	696	0.874164	0.033952
509	585	586	1.45098	0.096902
510	553	554	7.771211	0.624564
511	554	555	8.841767	2.260027
512	555	556	14.219913	1.127147
513	556	557	17.557422	11.789411
514	557	83	19.039955	2.971305
515	558	537	21.504754	18.122769
516	579	580	1.70906	0.04652
517	579	484	23.123853	1.597163
518	580	581	4.637823	0.201743
519	581	5860	5.748246	1.355949
520	586	541	0.403786	0.004702
521	586	587	1.047195	0.054718
522	5860	65	6.099902	1.788293
523	587	588	0.279402	0.008609
524	587	558	0.767793	0.018827
525	588	570	40.682151	3.451718
526	589	569	1.697006	0.006901
527	589	588	40.4	148.34
528	535	634	7.448505	0.073122
529	526	556	0.655583	0.001459
530	526	542	3.526429	0.037485
531	527	553	0.325302	0.001094
532	527	528	5.274259	0.003208
533	528	531	6.755356	0.921033
534	529	121	1.070557	0.005331
535	529	527	5.599561	0.179828
536	530	552	0.337969	0.001423
537	530	120	7.728663	0.012965
538	531	532	6.840155	0.539601
539	532	533	6.911698	0.536256
540	533	534	6.970848	0.481959
541	534	516	7.017544	0.54902
542	536	696	23.660937	1.862757
543	516	517	7.04861	0.63984
544	517	518	7.026566	0.578903
545	517	522	0.022	0.000003
546	518	123	1.955731	0.043377
547	518	519	5.070835	0.167435
548	519	520	11	1.6
549	520	122	7.68703	0.223912
550	520	548	3.360161	1.219394
551	521	544	9.642761	14.253526
552	522	519	5.976356	0.69772
553	523	516	0.031066	0.000006
554	523	522	5.954312	0.784927
555	524	534	0.046696	0.000014
556	524	523	5.985378	0.670669
557	525	533	0.05915	0.000023
558	525	524	6.032075	0.61365
559	537	536	22.727387	5.537921
560	514	532	0.071543	0.000033
561	514	525	6.091224	0.698223
562	515	531	0.0848	0.000047
563	515	514	6.162767	0.746871
564	538	541	0.818847	0.000162
565	539	538	0.464857	0.000096
566	539	505	22.326121	0.133382
567	540	538	0.35399	0.000875
568	540	536	0.93355	0.015234
569	541	537	1.222633	0.00069
570	542	555	3.526429	0.040327
571	513	504	20.061724	117.05569
572	504	589	42.099755	34.316517
573	494	481	2.354496	0.090479
574	494	495	11.256546	15.338713
575	495	497	12.375717	43.587584
576	496	471	53.621776	51.973495
577	496	495	1.11917	8.375896
578	497	498	6.786655	2.115932
579	497	471	5.6	0.01
580	499	498	3.285845	0.004802
581	498	480	2.3421	0.118625
582	498	500	7.7304	1.706838
583	499	470	50.628275	4.824641
584	500	493	2.341101	0.082743
585	500	501	5.389299	18.917609
586	501	502	7.956617	2.032928
587	502	130	2.320158	0.000474
588	502	503	13.278553	67.667661
589	503	490	7.987259	0.147011
590	503	485	5.291294	0.976743
591	505	85	40.04284	1.270249
592	485	488	0.851887	0.001615
593	485	464	17.533662	4.657596
594	486	485	13.094256	1.434187
595	486	487	6.921684	11.894362
596	487	697	1.188249	0.003254
597	487	408	39	156
598	488	489	5.494795	0.098321
599	489	78	14.480479	0.639594
600	490	489	7.084581	1456.803498
601	490	491	0.902678	0.004136
602	491	76	33.18647	3.698671
603	492	491	32.283792	10.284504
604	493	492	29.963633	5.725385
605	506	507	77.252416	5.708086
606	480	493	27.622532	1.167486
607	481	480	25.280432	54.412371
608	482	84	22.925936	3.959334
609	483	482	20.58	8.39
610	484	580	2.928763	0.0373
611	484	483	20.19509	1.020501
612	507	508	64.53373	0.755157
613	508	510	5.337355	0.009504
614	508	512	59.196375	2.806909
615	507	509	12.718686	0.07148
616	509	510	6.164874	0.69318
617	509	75	6.553812	33.631202
618	510	482	2.346615	0.005816
619	510	511	9.155614	2.804653
620	511	494	13.611042	2.789327
621	512	511	4.455428	0.007251
622	512	496	54.740947	9.759397
623	467	128	55.573653	0.687715
624	468	489	1.901103	0.002366
625	468	479	27.893314	33.884483
626	469	502	7.642094	0.021864
627	469	468	29.794417	39.096007
628	469	460	10.624446	9.671145
629	470	501	2.567318	0.002785
630	470	469	48.060957	2.375931
631	471	499	53.91412	2.100998
632	471	124	5.296718	2.615329
633	473	407	98.757798	3.164515
634	460	461	10.624446	10.371148
635	461	109	26.169439	4.944748
636	462	452	0.254034	0.000349
637	462	461	15.544993	60.590161
638	463	451	0.313324	0.000532
639	463	462	15.799027	2.037933
640	464	465	1.421311	0.010897
641	464	463	16.112351	2.72732
642	465	467	55.097022	11.990405
643	474	163	3.593169	0.006481
644	474	473	27.480492	174.941579
645	451	465	53.675711	19.424516
646	452	451	53.362387	7.71277
647	453	452	53.108353	15.950551
648	454	453	52.979518	7.896338
649	455	456	111.018557	2.183934
650	456	80	95.469336	5.573598
651	456	459	15.549222	76.804406
652	457	81	94.978916	24.848906
653	457	458	0.490419	0.000128
654	458	135	151.971084	12.564778
655	459	458	151.045103	22.425178
656	475	474	31.07366	0.24105
657	475	478	25.838262	0.782176
658	446	447	5.310937	0.062261
659	446	131	11.232615	0.555481
660	447	134	135.495881	0.816513
661	448	447	5.405089	0.020222
662	449	450	0.384007	0.000251
663	449	477	85.278702	1.061837
664	450	448	4.413982	0.048474
665	476	475	56.911922	18.73919
666	477	476	14.001395	0.590973
667	477	473	71.277307	194.51286
668	478	487	33.239006	17.905948
669	479	478	7.400744	3.679025
670	479	127	0.476631	0.000161
671	479	486	20.015939	9.690654
672	407	132	3.550888	0.006329
673	407	409	102.103698	13.174837
674	408	407	6.896788	3.532241
675	400	412	25.357548	0.870841
676	401	402	2.185535	0.005783
677	401	411	28.727516	6.513291
678	402	404	13.362617	2.731939
679	403	406	4.981109	0.055219
680	403	446	15.380951	0.251059
681	404	405	0.144613	0.000187
682	404	403	13.218004	0.508244
683	405	406	119.798746	20.232164
684	406	447	124.779855	7.506766
685	408	446	1.162601	0.024117
686	411	414	31.6	3.47
687	408	401	30.913052	17.70307
688	409	439	55.801578	31.385846
689	409	410	46.30212	6.915185
690	410	400	25.357548	0.330128
691	410	411	20.944573	0.594111
692	411	412	18.062268	0.606859
693	412	413	43.419816	2.776213
694	413	173	32.602705	1.88618
695	413	402	10.817111	2.019923
